%YAML 1.1
%TAG !u! tag:unity3d.com,2011:
--- !u!114 &11400000
MonoBehaviour:
  m_ObjectHideFlags: 0
  m_CorrespondingSourceObject: {fileID: 0}
  m_PrefabInstance: {fileID: 0}
  m_PrefabAsset: {fileID: 0}
  m_GameObject: {fileID: 0}
  m_Enabled: 1
  m_EditorHideFlags: 0
  m_Script: {fileID: 11500000, guid: 7a33ef1eed014a6449e6b551c76fe138, type: 3}
  m_Name: 02_Sparow
  m_EditorClassIdentifier: 
  name: Sparow
  avatar:
    color: {r: 0.654902, g: 0.7607843, b: 0.84705883, a: 1}
    torso: {fileID: 21300000, guid: 83e06e1ed6c0a56478d98c599444dd39, type: 3}
    headIdle: {fileID: 21300000, guid: 35cbf513eb9fc474fb44391df0b1d664, type: 3}
    headJoy: {fileID: 21300000, guid: 21823226521113e498097810f163b851, type: 3}
    headAnger: {fileID: 21300000, guid: a8cf4f84958d39f48a8155477e65cb91, type: 3}
  power:
    scoreTarget: 60
    startLikes: 20
    additionsStartLikes: 0
    additionsLikesInMinute: 20
  price:
    coins: 110
    advertising: 3
    acquired: 0
  reward:
    win: 70
    lose: 30
  goodReplicasPerson:
    _asset: {fileID: 4900000, guid: e172d1aaf6e2282409c62f9891b706c0, type: 3}
  badReplicasPerson:
    _asset: {fileID: 4900000, guid: da4d4d021608ebb478b991ee1c8c4f5b, type: 3}
  goodReplicasOpponent:
    _asset: {fileID: 4900000, guid: 87a45db7ff30d6d449aa6f3d888c7c20, type: 3}
  badReplicasOpponent:
    _asset: {fileID: 4900000, guid: 0a54572bf14a43e48b0b0fe5d668dc85, type: 3}
  uniqueGoodStickers:
  - {fileID: 21300004, guid: dffef66376be4fa480fb02b19edbe903, type: 3}
  - {fileID: 21300006, guid: dffef66376be4fa480fb02b19edbe903, type: 3}
  - {fileID: 21300016, guid: dffef66376be4fa480fb02b19edbe903, type: 3}
  uniqueBadStickers:
  - {fileID: -633307623612879720, guid: 01d3daa1f3bdfb94d9c6334be3a16726, type: 3}
  - {fileID: -7198688658642231228, guid: 01d3daa1f3bdfb94d9c6334be3a16726, type: 3}
  _defeated: 0
