%YAML 1.1
%TAG !u! tag:unity3d.com,2011:
--- !u!114 &11400000
MonoBehaviour:
  m_ObjectHideFlags: 0
  m_CorrespondingSourceObject: {fileID: 0}
  m_PrefabInstance: {fileID: 0}
  m_PrefabAsset: {fileID: 0}
  m_GameObject: {fileID: 0}
  m_Enabled: 1
  m_EditorHideFlags: 0
  m_Script: {fileID: 11500000, guid: 7a33ef1eed014a6449e6b551c76fe138, type: 3}
  m_Name: 03_DeadGirl
  m_EditorClassIdentifier: 
  name: DeadGirl
  avatar:
    color: {r: 0.6392157, g: 0.59607846, b: 0.6862745, a: 1}
    torso: {fileID: 21300000, guid: c493fb18678dae048b522af9be67f045, type: 3}
    headIdle: {fileID: 21300000, guid: 8e3da7d27e3e63141beb10f9569bf0ac, type: 3}
    headJoy: {fileID: 21300000, guid: 2135ce005a99ef847b5d5fa9be98844d, type: 3}
    headAnger: {fileID: 21300000, guid: 392c2d867129c8047969200a80915b18, type: 3}
  power:
    scoreTarget: 70
    startLikes: 30
    additionsStartLikes: 0
    additionsLikesInMinute: 25
  price:
    coins: 120
    advertising: 3
    acquired: 0
  reward:
    win: 70
    lose: 30
  goodReplicasPerson:
    _asset: {fileID: 4900000, guid: 7b305eb7c57a3d44ab4ce71ea2a7d993, type: 3}
  badReplicasPerson:
    _asset: {fileID: 4900000, guid: cbf988669c406cb43baeccbf8643bed2, type: 3}
  goodReplicasOpponent:
    _asset: {fileID: 4900000, guid: 2f29c25bfb9fd12499e34d215d11f5ff, type: 3}
  badReplicasOpponent:
    _asset: {fileID: 4900000, guid: 1183a904844df4f42b6986eb3e9e391f, type: 3}
  uniqueGoodStickers:
  - {fileID: 21300004, guid: dffef66376be4fa480fb02b19edbe903, type: 3}
  - {fileID: 21300006, guid: dffef66376be4fa480fb02b19edbe903, type: 3}
  - {fileID: 21300016, guid: dffef66376be4fa480fb02b19edbe903, type: 3}
  uniqueBadStickers:
  - {fileID: -633307623612879720, guid: 01d3daa1f3bdfb94d9c6334be3a16726, type: 3}
  - {fileID: -7198688658642231228, guid: 01d3daa1f3bdfb94d9c6334be3a16726, type: 3}
  _defeated: 0
