%YAML 1.1
%TAG !u! tag:unity3d.com,2011:
--- !u!114 &11400000
MonoBehaviour:
  m_ObjectHideFlags: 0
  m_CorrespondingSourceObject: {fileID: 0}
  m_PrefabInstance: {fileID: 0}
  m_PrefabAsset: {fileID: 0}
  m_GameObject: {fileID: 0}
  m_Enabled: 1
  m_EditorHideFlags: 0
  m_Script: {fileID: 11500000, guid: e7e3343ae03e73c4c8764cc32434af8c, type: 3}
  m_Name: LeaguesData
  m_EditorClassIdentifier: 
  _tested: {fileID: 11400000, guid: 2271af3b28e5e1a44a6831ad6c20a4b0, type: 2}
  _single: {fileID: 11400000, guid: f9b2a5958a130b0489833b7abfad91c9, type: 2}
  _leagues:
  - {fileID: 11400000, guid: 749ee35d539ca4a42befcab5b20d0482, type: 2}
  - {fileID: 11400000, guid: e9ac9f1e8a34e174eb70e666bf01cb90, type: 2}
