%YAML 1.1
%TAG !u! tag:unity3d.com,2011:
--- !u!114 &11400000
MonoBehaviour:
  m_ObjectHideFlags: 0
  m_CorrespondingSourceObject: {fileID: 0}
  m_PrefabInstance: {fileID: 0}
  m_PrefabAsset: {fileID: 0}
  m_GameObject: {fileID: 0}
  m_Enabled: 1
  m_EditorHideFlags: 0
  m_Script: {fileID: 11500000, guid: 7a33ef1eed014a6449e6b551c76fe138, type: 3}
  m_Name: 03_Trump
  m_EditorClassIdentifier: 
  name: Trump
  avatar:
    color: {r: 0.77254903, g: 0.92941177, b: 0.9372549, a: 1}
    torso: {fileID: 21300000, guid: 46a58fd37844f454e88c27680990ebb0, type: 3}
    headIdle: {fileID: 21300000, guid: cf65f7542b742c04baabe0a49dd2f6be, type: 3}
    headJoy: {fileID: 21300000, guid: 0bf104eeca9c5294db238f6bad76fabf, type: 3}
    headAnger: {fileID: 21300000, guid: 79971de6498af1740b0432ec5af90593, type: 3}
  power:
    scoreTarget: 20
    startLikes: 0
    additionsStartLikes: 0
    additionsLikesInMinute: 10
  price:
    coins: 50
    advertising: 3
    acquired: 1
  reward:
    win: 50
    lose: 20
  goodReplicasPerson:
    _asset: {fileID: 4900000, guid: 7b305eb7c57a3d44ab4ce71ea2a7d993, type: 3}
  badReplicasPerson:
    _asset: {fileID: 4900000, guid: cbf988669c406cb43baeccbf8643bed2, type: 3}
  goodReplicasOpponent:
    _asset: {fileID: 4900000, guid: 2f29c25bfb9fd12499e34d215d11f5ff, type: 3}
  badReplicasOpponent:
    _asset: {fileID: 4900000, guid: 1183a904844df4f42b6986eb3e9e391f, type: 3}
  uniqueGoodStickers:
  - {fileID: 21300004, guid: dffef66376be4fa480fb02b19edbe903, type: 3}
  - {fileID: 21300006, guid: dffef66376be4fa480fb02b19edbe903, type: 3}
  - {fileID: 21300016, guid: dffef66376be4fa480fb02b19edbe903, type: 3}
  uniqueBadStickers:
  - {fileID: -633307623612879720, guid: 01d3daa1f3bdfb94d9c6334be3a16726, type: 3}
  - {fileID: -7198688658642231228, guid: 01d3daa1f3bdfb94d9c6334be3a16726, type: 3}
  _defeated: 1
