%YAML 1.1
%TAG !u! tag:unity3d.com,2011:
--- !u!114 &11400000
MonoBehaviour:
  m_ObjectHideFlags: 0
  m_CorrespondingSourceObject: {fileID: 0}
  m_PrefabInstance: {fileID: 0}
  m_PrefabAsset: {fileID: 0}
  m_GameObject: {fileID: 0}
  m_Enabled: 1
  m_EditorHideFlags: 0
  m_Script: {fileID: 11500000, guid: 7a33ef1eed014a6449e6b551c76fe138, type: 3}
  m_Name: DasVadorBanana
  m_EditorClassIdentifier: 
  name: DasVadorBanana
  avatar:
    color: {r: 0.96862745, g: 0.43529412, b: 0.4117647, a: 1}
    torso: {fileID: 21300000, guid: b1b533ee284c87a408425ba7c0610ce4, type: 3}
    headIdle: {fileID: 21300000, guid: 7e321282fc8f8a64fbff40d7d692fb8c, type: 3}
    headJoy: {fileID: 21300000, guid: 8438316c1fde49a43a4ccb010ece08db, type: 3}
    headAnger: {fileID: 21300000, guid: ecd94ab9e25fca140a7a54dbe220554d, type: 3}
  power:
    scoreTarget: 40
    startLike: 30
    secondBetweenAdditionsLikes: 2
    additionsLikes: 1
  price:
    coins: 100
    advertising: 3
  goodReplicasPerson:
    _asset: {fileID: 4900000, guid: e172d1aaf6e2282409c62f9891b706c0, type: 3}
  badReplicasPerson:
    _asset: {fileID: 4900000, guid: da4d4d021608ebb478b991ee1c8c4f5b, type: 3}
  goodReplicasOpponent:
    _asset: {fileID: 4900000, guid: 87a45db7ff30d6d449aa6f3d888c7c20, type: 3}
  badReplicasOpponent:
    _asset: {fileID: 4900000, guid: 0a54572bf14a43e48b0b0fe5d668dc85, type: 3}
  uniqueGoodStickers:
  - {fileID: 21300004, guid: dffef66376be4fa480fb02b19edbe903, type: 3}
  - {fileID: 21300006, guid: dffef66376be4fa480fb02b19edbe903, type: 3}
  - {fileID: 21300016, guid: dffef66376be4fa480fb02b19edbe903, type: 3}
  uniqueBadStickers:
  - {fileID: -633307623612879720, guid: 01d3daa1f3bdfb94d9c6334be3a16726, type: 3}
  - {fileID: -7198688658642231228, guid: 01d3daa1f3bdfb94d9c6334be3a16726, type: 3}
